[
 {
   "bigtext": "Ward Anthony Brockman",
   "smalltext": "",
   "content": "<p><b>Born:</b> 1971</p><p><b>Convicted of:</b> Ward Anthony Brockman was sentenced to die for murdering the afternoon manager of the Premium Oil gas station in Columbus, 22-year-old Billy Lynn, in a Une 1990 attempted robbery. Brockman was 18 at the time.</p><p><b>On Death Row since:</b> April 1994</p><p><b>County of conviction:</b> Muscogee</p>",
   "imageurl": "https://media.cmgdigital.com/shared/img/photos/2015/09/23/ca/b8/brockman2.jpg"
 },
 {
   "bigtext": "Brian Wayne Brookins",
   "smalltext": "",
   "content": "<p><b>Born:</b> 1971</p><p><b>Convicted of:</b> Brian Duane Brookins was sentenced to die for murdering his wife, Suzanne McDade Brookins, and her 15-year-old daughter, Samantha Giles.</p><p><b>On Death Row since:</b> Oct. 2007</p><p><b>County of conviction:</b> Baldwin</p>",
   "imageurl": "https://media.cmgdigital.com/shared/img/photos/2015/09/23/59/f6/brookins2.jpg"
 },
 {
   "bigtext": "Cleveland Clark",
   "smalltext": "",
   "content": "<p><b>Born:</b> 1957</p><p><b>Convicted of:</b> Cleveland Clark was sentenced to die for the murder-for-hire of Michelle \"Sparkle\" Rai. Clark stabbed and strangled her with a vacuum cleaner chord in front of her crying 6-month-old daughter. Rai’s father-in-law, a native of India, paid Clark to kill her because he opposed his son’s marriage to an African-American.</p><p><b>On Death Row since:</b> July 2009</p><p><b>County of conviction:</b> Fulton</p>",
   "imageurl": "https://media.cmgdigital.com/shared/img/photos/2015/09/23/91/fe/clark2.jpg"
 },
 {
   "bigtext": "Ray Jefferson Cromartie",
   "smalltext": "",
   "content": "<p><b>Born:</b> 1967</p><p><b>Convicted of:</b> Ray J. Cromartie was sentenced to die for shooting a Thomasville convenience store clerk, Richard Slysz, in the head twice so he could steal a 12-pack of beer. The day before, Cromartie shot and wounded a clerk with a borrowed .25-caliber handgun during a failed robbery of a deli. The deli clerk, Dan Wilson, survived even though he was shot in the face and the bullet severed his carotid artery.</p><p><b>On Death Row since:</b> Oct. 1997</p><p><b>County of conviction:</b> Thomas</p>",
   "imageurl": "https://media.cmgdigital.com/shared/img/photos/2015/09/23/7d/e7/cromartie2.jpg"
 },
 {
   "bigtext": "Leonard Drane",
   "smalltext": "",
   "content": "<p><b>Born:</b> 1959</p><p><b>Convicted of:</b> Leonard Drane was sentenced to die for murdering a woman he and another man picked up at an Elberton Huddle House. Renee Blackmon was taken to a secluded area where she was sexually assaulted and then shot in the head with a shotgun. Her throat was cut six times before Drane tied her body to a brake drum and dumped in a lake.</p><p><b>On Death Row since:</b> Nov. 1990</p><p><b>County of conviction:</b> Elbert</p>",
   "imageurl": "https://media.cmgdigital.com/shared/img/photos/2015/09/23/d2/a2/drane2.jpg"
 },
 {
   "bigtext": "Joshua Kevin Drucker",
   "smalltext": "",
   "content": "<p><b>Born:</b> 1978</p><p><b>Convicted of:</b> Joshua Kevin Drucker, a former youth minister, was sentenced to die murdering two friends -- David Robertson and Lora Nikolova -- in a dispute over drugs.</p><p><b>On Death Row since:</b> Oct. 2011</p><p><b>County of conviction:</b> Cobb</p>",
   "imageurl": "https://media.cmgdigital.com/shared/img/photos/2015/09/23/aa/50/drucker2.jpg"
 },
 {
   "bigtext": "David Homer Edenfield",
   "smalltext": "",
   "content": "<p><b>Born:</b> 1948</p><p><b>Convicted of:</b> David Homer Edenfield was sentenced to die for molesting and then strangling a 6-year-old boy. Christopher Michael Barrios’ body was found wrapped in a trash bag and dumped beside the road a week after he disappeared from a Brunswick trailer park. Edenfield’s wife, Peggy, was convicted of child molestation and sentenced to 60 years in prison. His son, George, was charged in the boy’s death but was found to be incompetent to stand trial.</p><p><b>On Death Row since:</b> July 2010</p><p><b>County of conviction:</b> Glynn</p>",
   "imageurl": "https://media.cmgdigital.com/shared/img/photos/2015/09/23/65/d9/edenfield2.jpg"
 },
 {
   "bigtext": "John Anthony Esposito",
   "smalltext": "",
   "content": "<p><b>Born:</b> 1975</p><p><b>Convicted of:</b> John Anthony Esposito was sentenced to die for kidnapping a 90-year-old retired librarian, Lola Davis, from a North Carolina Winn-Dixie supermarket parking lot, and driving her to Georgia, where he used a five-foot tree limb to beat her to death in a Madison hayfield. His then-girlfriend, Alicia Woodward, is serving a life sentence for Davis’ murder, The couple also was convicted of kidnapping and murdering an Oklahoma couple 10 days after killing Davis. Lawrence Snider, 90, and Marguerite Snider, 86, were taken to the Texas panhandle and beaten to death.</p><p><b>On Death Row since:</b> Oct. 1998</p><p><b>County of conviction:</b> Baldwin</p>",
   "imageurl": "https://media.cmgdigital.com/shared/img/photos/2015/09/23/ba/52/esposito2.jpg"
 },
 {
   "bigtext": "David Scott Franks",
   "smalltext": "",
   "content": "<p><b>Born:</b> 1961</p><p><b>Convicted of:</b> David Scott Franks was sentenced to die for stabbing to death Debbie Wilson on Aug. 5, 1994, after demanding she open a safe in the bedroom of their Hall County home. Franks believed her husband had stored $100,000 there. Franks then attacked and wounded her two children with a knife. He also was accused of shooting, execution style, Wilson’s husband, Clinton, and a business associate, David Martin, earlier that day at his Haralson County pawn shop when they allegedly did not produce a promised $100,000 to buy drugs.</p><p><b>On Death Row since:</b> Feb. 1998</p><p><b>County of conviction:</b> Hall</p>\n",
   "imageurl": "https://media.cmgdigital.com/shared/img/photos/2015/09/25/44/4b/franks2.jpg"
 },
 {
   "bigtext": "Adrian Hargrove",
   "smalltext": "",
   "content": "<p><b>Born:</b> 1977</p><p><b>Convicted of:</b> Adrian Hargrove was sentenced to die for the 2008 stabbing to death a pregnant 18-year-old woman and her parents. Allyson Pederson, supposedly five months pregnant with Hargrove’s child, was stabbed 21 times with a butcher knife. Hargrove dumped her body near her parents' house and set her body on fire. Her mother, Sharon Hartley, was cut or stabbed 12 times in her own bedroom and her father, Andrew, was cut and stabbed 20 times and struck 17 times with an ax handle.</p><p><b>On Death Row since:</b> March 2014</p><p><b>County of conviction:</b> Richmond</p>",
   "imageurl": "https://media.cmgdigital.com/shared/img/photos/2015/09/25/a9/b0/hargrove2.jpg"
 },
 {
   "bigtext": "Jerry Scott Heidler",
   "smalltext": "",
   "content": "<p><b>Born:</b> 1977</p><p><b>Convicted of:</b> Jerry Scott Heidler was sentenced to die for murdering Kim and Danny Daniels and two of their nine children on Dec. 4, 1997, at their home in Santa Claus. The Daniels had taken in Heidler as a troubled youth but banned him from their home when he took an interest in one of their daughters. Heidler, 20 at the time, also shot and killed 16-year-old Jessica, and 8-year-old Bryant before kidnapping the couple’s girls – ages 8, 9 and 10. He sexually assaulted one of them. Two younger children were left behind with the bodies of their parents and siblings.</p><p><b>Sentenced to deathe:</b> Sept. 1999</p><p><b>County of conviction:</b> Toombs</p>",
   "imageurl": "https://media.cmgdigital.com/shared/img/photos/2015/09/25/52/ee/heidler2.jpg"
 },
 {
   "bigtext": "Dallas B. Holiday",
   "smalltext": "",
   "content": "<p><b>Born:</b> 1962</p><p><b>Convicted of:</b> Dallas Holiday was sentenced to die for murdering Leon Williams for his watch and wallet. Williams was on his regular early-morning walk when Holiday, on a bike, rode up to him and hit him with the butt of a gun. As Williams begged for his life, Holiday struck him in the head with a brick and then shot and killed him.</p><p><b>On Death Row since:</b> Dec. 1986</p><p><b>County of conviction:</b> Jefferson</p>",
   "imageurl": "https://media.cmgdigital.com/shared/img/photos/2015/09/25/27/ac/holiday2.jpg"
 },
 {
   "bigtext": "Stacey Ian Humphreys",
   "smalltext": "",
   "content": "<p><b>Born:</b> 1973</p><p><b>Convicted of:</b> Stacey Ian Humphreys was sentenced to die for murdering two real estate agents working in a model home in a newly built subdivision. Humphreys, on parole at the time, first forced Cindy Williams to give him her personal identification number for her automated teller machine card and then he tried to strangle her with her underwear before shooting her in the back of the head. Moments after Williams was killed, Lori Brown came into the office. Humphreys forced her to give up her PIN and then shot her in the head.</p><p><b>On Death Row since:</b> Oct. 2007</p><p><b>County of conviction:</b> Cobb</p>",
   "imageurl": "https://media.cmgdigital.com/shared/img/photos/2015/09/25/b5/c7/humphreys2.jpg"
 },
 {
   "bigtext": "Lawrence J. Jefferson",
   "smalltext": "",
   "content": "<p><b>Born:</b> 1955</p><p><b>Convicted of:</b> Lawrence J. Jefferson was sentenced to die for murdering his construction job supervisor, Edward Taulbee, at Lake Allatoona in Cobb County. The two had gone fishing, when Jefferson beat Taulbee with a stick and crushed his skull using a 40-pound tree trunk.</p><p><b>On Death Row since:</b> March 1986</p><p><b>County of conviction:</b> Cobb</p>",
   "imageurl": "https://media.cmgdigital.com/shared/img/photos/2015/09/25/d1/95/jefferson2.jpg"
 },
 {
   "bigtext": "Ashley Lyndol Jones",
   "smalltext": "",
   "content": "<p><b>Born:</b> 1973</p><p><b>Convicted of:</b> Ashley Lyndol Jones was sentenced to die for murdering Carlton Keith Holland. Jones and another man had been drinking when their stolen car broke down. They stopped at the Holland house to ask for help. While Holland was bent over looking at the engine, Jones struck him in the head with a wrench and then a sledgehammer.</p><p><b>On Death Row since:</b> June 1995</p><p><b>County of conviction:</b> Coffee</p>",
   "imageurl": "https://media.cmgdigital.com/shared/img/photos/2015/09/25/46/74/ashleyjones2.jpg"
 },
 {
   "bigtext": "Jerry William Jones",
   "smalltext": "",
   "content": "<p><b>Born:</b> 1972</p><p><b>Convicted of:</b> Jerry William Jones was sentenced to die for strangling his 10-month-old daughter, Jerri, with a cord and then shooting three of his ex-girlfriend’s family members dead -- her parents Tom and Nola Blaylock, and her sister Georgia May Bradley. He then kidnapped two of his other children and a third child, driving to the last exit before Interstate 75 crosses into Tennessee, where he shot himself in the face. The three children in the car were not harmed during his failed suicide attempt.</p><p><b>On Death Row since:</b> Jan. 2004</p><p><b>County of conviction:</b> Gordon</p>",
   "imageurl": "https://media.cmgdigital.com/shared/img/photos/2015/09/25/7f/10/jerryjones2.jpg"
 },
 {
   "bigtext": "Warren King",
   "smalltext": "",
   "content": "<p><b>Born:</b> 1976</p><p><b>Convicted of:</b> Warren King was sentenced to die for murdering a convenience store clerk, Karen Crosby, in the parking lot moments after she locked up for the night car. Crosby recognized King and called him by name when he and his cousin, Walter Smith, approached her. King held Crosby at gunpoint while Smith, who is serving a life sentence, used her keys to get inside to the register. The surveillance recorded the sound of Crosby being shot.</p><p><b>On Death Row since:</b> Oct. 1998</p><p><b>County of conviction:</b> Appling</p>",
   "imageurl": "https://media.cmgdigital.com/shared/img/photos/2015/09/25/90/c7/king2.jpg"
 },
 {
   "bigtext": "Donnie Cleveland Lance",
   "smalltext": "",
   "content": "<p><b>Born:</b> 1953</p><p><b>Convicted of:</b> Donnie Cleveland Lance was sentenced to die for murdering his ex-wife and her boyfriend. Sabrina \"Joy\" Lance was beaten to death and Dwight \"Butch\" Wood was shot inside Wood’s Jackson county trailer.</p><p><b>On Death Row since:</b> June 1999</p><p><b>County of conviction:</b> Jackson</p>",
   "imageurl": "https://media.cmgdigital.com/shared/img/photos/2015/09/25/ca/40/lance2.jpg"
 },
 {
   "bigtext": "Michael William Ledford",
   "smalltext": "",
   "content": "<p><b>Born:</b> 1962</p><p><b>Convicted of:</b> Michael Ledford was sentenced to die for murdering Sandy Springs cyclist Jennifer Ewing just after she passed the 32nd mile on the 50-mile-long Silver Comet Trail. The 53-year-old mother fought back when he tried to force her to perform oral sex on him. He struck her with his fists at least 30 times and stomped her twice, leaving footprints on her chest and side.</p><p><b>On Death Row since:</b> June 2009</p><p><b>County of conviction:</b> Paulding</p>",
   "imageurl": "https://media.cmgdigital.com/shared/img/photos/2015/09/25/0e/f7/mledford2.jpg"
 },
 {
   "bigtext": "James Allyson Lee",
   "smalltext": "",
   "content": "<p><b>Born:</b> 1974</p><p><b>Convicted of:</b> James Allyson Lee was sentenced to die for murdering his father's live-in girlfriend, Sharon Chancey. Lee had planned to kill his father and steal his Toyota Silverado, but when he learned the older man was not home, Lee had his girlfriend call Chancey to lure her. Lee shot Chancey in the face and while she was still alive, drove her to a secluded area in Charlton County, where he shot her twice more to kill her. Lee took the truck, her purse and two rings she was wearing, before he and his girlfriend drove to Florida, where he was eventually arrested.</p><p><b>On Death Row since:</b> June 1997</p><p><b>County of conviction:</b> Charlton</p>",
   "imageurl": "https://media.cmgdigital.com/shared/img/photos/2015/09/25/9f/b4/lee2.jpg"
 },
 {
   "bigtext": "Pablo Fernando Maldonado",
   "smalltext": "",
   "content": "<p><b>Born:</b> 1986</p><p><b>Convicted of:</b> Pablo Fernando Maldnado was sentenced to die for murdering his boss, Conyers landscaper Timothy Clements. Maldnado, who was 23 at the time, along with three teenagers, kidnapped Clements, robbed him, stole his truck and killed him. They dumped his body in Snapping Shoals Creek.</p><p><b>On Death Row since:</b> Sept. 2012</p><p><b>County of conviction:</b> Newton</p>",
   "imageurl": "https://media.cmgdigital.com/shared/img/photos/2015/09/25/3a/1c/maldonado2.jpg"
 },
 {
   "bigtext": "De'Kelvin Rafael Martin",
   "smalltext": "",
   "content": "<p><b>Born:</b> 1972</p><p><b>Convicted of:</b> De’Kelvin Rafael Martin was sentenced to die for killing Travis and Ila Ivery, who were the grandparents of Martin's girlfriend, and for killing her 12-year-old son, Savion Wright, in 2002. The girlfriend, who was stabbed, survived the attack. Initially Martin pleaded guilty to 16 charges, including murder. He was expecting the Fulton County judge to give him life without parole, but instead she sentenced him to death. Almost two years later, at the end of 2006, he withdrew his plea and was tried before a jury. He was convicted of three murders and again sentenced to death. </p><p><b>On Death Row since:</b> Feb. 2005</p><p><b>County of conviction:</b> Fulton</p>",
   "imageurl": "https://media.cmgdigital.com/shared/img/photos/2015/09/23/7d/85/dmartin2.jpg"
 },
 {
   "bigtext": "Jimmy Fletcher Meders",
   "smalltext": "",
   "content": "<p><b>Born:</b> 1961</p><p><b>Convicted of:</b> Jimmy Fletcher Meders was sentenced to die for murdering a convenience store clerk for $38 and some food stamps. Meders had spent hours drinking with some buddies. In the early-morning hours of Oct. 14, 1987, Meders and three others stopped at the Glynn County store where Don Anderson was a cashier. Meders shot him in the chest and the head as he lay on the floor during a robbery.</p><p><b>On Death Row since:</b> May 1989</p><p><b>County of conviction:</b> Glynn</p>",
   "imageurl": "https://media.cmgdigital.com/shared/img/photos/2015/09/25/06/bb/meders2.jpg"
 },
 {
   "bigtext": "Michael Miller",
   "smalltext": "",
   "content": "<p><b>Born:</b> 1962</p><p><b>Convicted of:</b> Michael Miller was sentenced to die for murdering Larry Sneed, a man he and a partner randomly shot at when they passed him on a Walton County Road. Sneed slammed on brakes when a shot was fired and Miller’s van slammed into the back of it. Miller chased down Sneed and shot him in the back with a .22 rifle. Hours earlier, the pair had kidnapped Jimmy Evans from the parking lot of an Atlanta bar, stole his money and forced him to drive them to his apartment. At the apartment, they tied up Evans’ roommate, took several items, and then drove Evans to a deserted area and threw him out of their van.</p><p><b>On Death Row since:</b> Nov. 1988</p><p><b>County of conviction:</b> Walton</p>",
   "imageurl": "https://media.cmgdigital.com/shared/img/photos/2015/09/25/10/ef/mmiller2.jpg"
 },
 {
   "bigtext": "Nelson Earl Mitchell",
   "smalltext": "",
   "content": "<p><b>Born:</b> 1962</p><p><b>Convicted of:</b> Nelson Earl Mitchell was sentenced to die for murdering Iron City Police Chief Robert Cunningham during a routine traffic stop in August 1986. Mitchell claimed the shooting was an accident. He said the chief used a racial slur and that the gun discharged during a struggle.</p><p><b>On Death Row since:</b> Feb. 1990</p><p><b>County of conviction:</b> Early</p>",
   "imageurl": "https://media.cmgdigital.com/shared/img/photos/2015/09/25/ad/8e/nmitchell2.jpg"
 },
 {
   "bigtext": "Jeremy Lee Moody",
   "smalltext": "",
   "content": "<p><b>Born:</b> 1977</p><p><b>Convicted of:</b> Jeremy Lee Moody was sentenced to die for murdering 15-year-old Delarlnova “Del” Mattox, and raping and murdering 13-year-old Chrisondra Sierra Kimble when he caught them walking home from an Old National Highway convenience store after buying snacks in April 2007. Moody stabbed them with a screwdriver after robbing them. </p><p><b>On Death Row since:</b> April 2013</p><p><b>County of conviction:</b> Fulton</p>",
   "imageurl": "https://media.cmgdigital.com/shared/img/photos/2015/09/25/f9/99/moody2.jpg"
 },
 {
   "bigtext": "Scotty Garnell Morrow",
   "smalltext": "",
   "content": "<p><b>Born:</b> 1967</p><p><b>Convicted of:</b> Scotty Garnell Morrow was sentenced to die for murdering his ex-girlfriend for breaking up with him, and also for killing a second woman, Tonya Woods, who was at the Hall County house when he came for revenge. Barbara Ann Young’s 5-year-old son watched from a hiding place as Morrow shot his mother in the face and then as he shot a third woman, who survived. </p><p><b>On Death Row since:</b> June 2000</p><p><b>County of conviction:</b> Hall</p>",
   "imageurl": "https://media.cmgdigital.com/shared/img/photos/2015/09/25/c1/6d/morrow2.jpg"
 },
 {
   "bigtext": "Michael Wayne Nance",
   "smalltext": "",
   "content": "<p><b>Born:</b> 1961</p><p><b>Convicted of:</b> Michael Wayne Nance was sentenced to die for murdering Gabor Balogh, who he tried to carjack while escaping from a Gwinnett County bank that he robbed. Tellers at Tucker Federal Bank in Lilburn had put a dye pack and a tear gas canister in the bag of money that they had handed over at gunpoint. Both exploded after he got into his car to get way. Leaving the money in his car, he tried to take Balough’s in the parking lot of a nearby liquor store. Nance shot Balough when he yelled for help. Nance then ran to a gas station where he held off police for an hour.</p><p><b>On Death Row since:</b> Oct. 1997</p><p><b>County of conviction:</b> Gwinnett</p>",
   "imageurl": "https://media.cmgdigital.com/shared/img/photos/2015/09/25/a2/2a/nance2.jpg"
 },
 {
   "bigtext": "Dorian Frank O'Kelley",
   "smalltext": "",
   "content": "<p><b>Born:</b> 1981</p><p><b>Convicted of:</b> Dorian Frank O’Kelley was sentenced to die for murdering Susan Pitman and her 13-year-old daughter, Kimberly, after finding them asleep in their Savannah home. He and Darryl Scott Stinski, also on Death Row for murder, killed the Pittmans during a crime spree in April 2002. The 41-year-old mother was beaten and stabbed to death. O’Kelley raped the teenager and then he slit her throat and hit her with a brick. Kimberly died of smoke inhalation after the two men set the Pittman house on fire.</p><p><b>On Death Row since:</b> Nov. 2005</p><p><b>County of conviction:</b> Chatham</p>",
   "imageurl": "https://media.cmgdigital.com/shared/img/photos/2015/09/25/50/ec/okelley2.jpg"
 },
 {
   "bigtext": "Lyndon Fitzgerald Pace",
   "smalltext": "",
   "content": "<p><b>Born:</b> 1964</p><p><b>Convicted of:</b> Lyndon Fitzgerald Pace was sentenced to die for raping and murdering four women, three of them elderly. Pace entered each woman’s Atlanta home through windows. Lula Bell McAfee, 86, was found face-down on her bed, raped and strangled, on Aug. 28, 1988. Mattie Mae McLendon, 78, was found Sept. 10, 1988, also raped and strangled. Police found 79-year-old Johnnie Mae Martin on Feb. 4, 1989, lying on her bed, sexually assaulted and strangled with a shoelace. His fourth victim was 42-year-old Annie Kate Britt, discovered March 4, 1989 with a sock knotted around her neck. </p><p><b>On Death Row since:</b> April 1996</p><p><b>County of conviction:</b> Fulton</p>",
   "imageurl": "https://media.cmgdigital.com/shared/img/photos/2015/09/25/81/e3/pace2.jpg"
 },
 {
   "bigtext": "Willie Williams Palmer",
   "smalltext": "",
   "content": "<p><b>Born:</b> 1952</p><p><b>Convicted of:</b> Willie Williams Palmer was sentenced to die for murdering his wife, Brenda Jenkins Palmer, and his 15-year-old stepdaughter, Christine Jenkins. The wife had filed for divorce and moved with her children to a two-room house without running water to escape his abuse. But he found them at the house the Burke County community of Vidette. Kicking in the front door, he first found his step-daughter on the bed, where he shot her. His estranged wife was in another room, holding their baby as a shield. Palmer shot his wife twice in the head.</p><p><b>On Death Row since:</b> Nov. 1997</p><p><b>County of conviction:</b> Burke</p>",
   "imageurl": "https://media.cmgdigital.com/shared/img/photos/2015/09/25/21/4c/wpalmer2.jpg"
 },
 {
   "bigtext": "Eric Alexander Perkinson",
   "smalltext": "",
   "content": "<p><b>UPDATE 2/4/2019:</b>  A federal judge in Atlanta has thrown out the death sentence imposed against Perkinson, who must stand trial within 120 days on the question of whether he is intellectually disabled. He will remain on death row until the state’s appeals are exhausted or if he’s allowed to be sentenced to life. But if he’s found to be intellectually disabled, he cannot get the death penalty.</p><p><b>Born:</b> 1978</p><p><b>Convicted of:</b> Eric Alexander Perkinson was sentenced to die for murdering 16-year-old Louis Nava after kidnapping him and another teen from a DeKalb County parking lot where they sitting in Nava’s aunt’s borrowed BMW, waiting for a groomer to finish with the friend’s dog. Perkinson demanded money from Nava and 17-year-old Dakarai Sloley and then forced them at gunpoint to drive. Two accomplices followed Perkisnon and the two teens up Interstate 75 to Bartow County and to a dirt road in a remote area. Perkinson killed Nava, shooting him twice, but only wounded Sloley in the arm as he ran through some woods to escape. Sloley gave police the license plate number for the Toyota that followed them to Bartow County and he identified Perkinson. </p><p><b>On Death Row since:</b> Sept. 1999</p><p><b>County of conviction:</b> Bartow</p>",
   "imageurl": "https://media.cmgdigital.com/shared/img/photos/2015/09/25/53/32/perkinson2.jpg"
 },
 {
   "bigtext": "Virgil Delano Presnell Jr.",
   "smalltext": "",
   "content": "<p><b>Born:</b> 1953<p><b>Convicted of:</b> Virgil D. Presnell Jr. was sentenced to die for drowning 8-year-old Lori Ann Smith when she tried to escape after he raped her friend. The girl and a 10-year-old friend were walking home from school on a wooded trail home when Presnell, lying in wait, kidnapped them. He drove them to a secluded forest in Cobb County where he raped and sodomized the older girl. He killed Lori Ann when she tried to run away but he freed her friend after he had a flat tire. </p><p><b>On Death Row since:</b> Oct. 1976</p><p><b>County of conviction:</b> Cobb</p>",
   "imageurl": "https://media.cmgdigital.com/shared/img/photos/2015/09/25/2f/0a/presnell2.jpg"
 },
 {
   "bigtext": "Willie James Pye",
   "smalltext": "",
   "content": "<p><b>Born:</b> 1965</p><p><b>Convicted of:</b> Willie James Pye was sentenced to die for raping and murdering Alicia Lynn Yarbrough, a woman with whom he had once had a romantic relationship. Yarbrough was living with another man, Charles Puckett, and was the mother of a baby Pye said was his even though she put Puckett’s name on the baby’s birth certificate. Pye and two other men set out to rob Puckett because they heard he had received a settlement from a lawsuit. But Puckett was not at the Griffin house and there was no money, so they took Yarborough. Pye, angry because she had named Puckett the baby’s father, took her to a nearby motel where the three men took turns raping her. Eventually they drove her to dirt road where Pye shot her three times while lying face-down on the ground. The other men, Chester Adams and Anthony Freeman, are serving life sentences her murder.</p><p><b>On Death Row since:</b> June 1996</p><p><b>County of conviction:</b> Spalding</p>",
   "imageurl": "https://media.cmgdigital.com/shared/img/photos/2015/09/25/59/53/pye2.jpg"
 },
 {
   "bigtext": "Mustafa Askia Raheem",
   "smalltext": "",
   "content": "<p><b>Born:</b> 1979</p><p><b>Convicted of:</b> Mustafa Askia Raheem was sentenced to die for murdering a Henry County woman and her son in 1999. Raheem and two others had gone to a remote area so Raheem could shoot his .380-caliber handgun; he wanted to be sure the weapon wouldn’t jam. As the three walked back to the car, Raheem, 20 at the time, shot and killed Brandon Hollis and then told the other man, Michael Jenkins, it was good that he didn’t run. Raheem then went to Hollis’ mother’s house, ordered her to her hands and knees and shot her in the head. Raheem later said he had given her money to buy a Lexus but she wouldn’t give him the car. After driving around with her body in the trunk, Raheem eventually decided to dispose of it by covering her body with planks and tires and set it on fire. Jenkins is serving life in prison for murder.</p><p><b>On Death Row since:</b> Feb. 2001</p><p><b>County of conviction:</b> Henry</p>",
   "imageurl": "https://media.cmgdigital.com/shared/img/photos/2015/09/25/f7/a6/raheem2.jpg"
 },
 {
   "bigtext": "Billy Daniel Raulerson",
   "smalltext": "",
   "content": "<p><b>Born:</b> 1969</p><p><b>Convicted of:</b> Billy Daniel Raulerson was sentenced to die for murdering three people, two of them teenagers, on a Memorial Day killing spree in 1993. Raulerson came up on Jason Hampton, 19, and Charlye Dixon,18, parked at a Ware County lakeside \"lovers' lane.\" He shot Hampton several times while standing at the bed of the pickup the teens were in and then shot Dixon when she tried to run. He dragged Hampton’s body from inside the truck and left his body there, and drove off with Dixon in the bed of the pickup. He drove several miles to a wooded area where he shot her again and sodomized her; he also was convicted of necrophilia. The next day he tried to return to where he had left Dixon’s body but he instead broke into a nearby house because of police in the area. Gail Taylor came home as he was loading meat from her freezer into his car. He shot her multiple times after struggling with her over a kitchen knife.</p><p><b>On Death Row since:</b> March 1996</p><p><b>County of conviction:</b> Chatham</p>",
   "imageurl": "https://media.cmgdigital.com/shared/img/photos/2015/09/25/38/5c/raulerson2.jpg"
 },
 {
   "bigtext": "Lawrence Rice",
   "smalltext": "",
   "content": "<p><b>Born:</b> 1949</p><p><b>Convicted of:</b> Lawrence Rice was sentenced to die for murdering a mother and her 14-year-old son because of a long-time grudge against the woman’s husband, the boy’s father. In the case against Rice for beating to death Connie and Ethan Mincher, prosecutors used a 138-page manifesto titled \"Culture Shock\" in which Rice detailed his growing hatred for Trevor Mincher. Rice had worked at Trevor’s video company but quit in a rage when he found out a new hire was making more money.</p><p><b>On Death Row since:</b> July 2008</p><p><b>County of conviction:</b> Cobb</p>",
   "imageurl": "https://media.cmgdigital.com/shared/img/photos/2015/09/25/c4/7e/rice2.jpg"
 },
 {
   "bigtext": "Reinaldo Javier Rivera",
   "smalltext": "",
   "content": "<p><b>Born:</b> 1963</p><p><b>Convicted of:</b> Reinaldo Javier Rivera was sentenced to die for raping and murdering Army Sgt. Marni Glista. He also confessed to raping and stabbing a 17-year-old he kidnapped as she was walking to her telemarketing job; she survived. Rivera took credit for three other rapes-murders -- one was 18 years old and two were 17 years old. He got close to his victims claiming to be a photographer looking for models. Rivera told authorities he raped because he was addicted to sex.</p><p><b>On Death Row since:</b> Feb. 2004</p><p><b>County of conviction:</b> Richmond</p>",
   "imageurl": "https://media.cmgdigital.com/shared/img/photos/2015/09/25/1f/ad/rivera2.jpg"
 },
 {
   "bigtext": "James R. Rogers",
   "smalltext": "",
   "content": "<p><b>Born:</b> 1961</p><p><b>Convicted of:</b> James Randall Rogers was sentenced to die for raping and murdering his 75-year-old neighbor Grace Perry by impaling her with the handle of a rake. He also assaulted Perry’s cousin, 63-year-old Edith Polston. Polston escaped and called police. Rogers was caught trying to climb over the back fence of the Floyd County house that the two women shared. As he was being driven to the police station he told the officer he killed Perry but “there's not anything you can do about it (because) I'm crazy and I've got papers to prove it.\" </p><p><b>On Death Row since:</b> June 1982</p><p><b>County of conviction:</b> Floyd</p>",
   "imageurl": "https://media.cmgdigital.com/shared/img/photos/2015/09/25/57/06/rogers2.jpg"
 },
 {
   "bigtext": "Richard Sealey",
   "smalltext": "",
   "content": "<p><b>Born:</b> 1964</p><p><b>Convicted of:</b> Richard Sealey was sentenced to die for murdering a Clayton County couple -- his teenage girlfriend’s grandparents -- with an ax. Sealey, 33 at the time, beat Johnny Tubner, 71, leaving him in a pool of blood on the floor, and then brought his 63-year-old wife into the room. Sealey placed a hot fireplace poker on Fannie Mae’s back in an attempt to get her or her husband to tell him where they kept their money and jewelry. Sealey told Deandre Carter to bring him a hammer so he could kill her grandparents. She returned with an ax, which he used to strike each of the Tubners in the heads multiple times. Carter was acquitted of charges she murdered her grandmother but a Clayton County jury could not agree on a verdict for the charge she murdered her grandfather. Carter was convicted of theft and 5 ½ years in prison. Two other accomplices – Gregory Fahie and Wajaka Battiste pleaded to lesser charges and testified against Sealey. Fahie served seven years in prison for conspiracy. Battiste served 1 ½ years for robbery for driving the other three to the Tubners’ house.</p><p><b>On Death Row since:</b> Sept. 2002</p><p><b>County of conviction:</b> Clayton</p>",
   "imageurl": "https://media.cmgdigital.com/shared/img/photos/2015/09/25/a1/41/sealey2.jpg"
 },
 {
   "bigtext": "Demarcus Ali Sears",
   "smalltext": "",
   "content": "<p><b>Born:</b> 1971</p><p><b>Convicted of:</b> DeMarcus Ali Sears was sentenced to die for raping and murdering Gloria Ann Wilbur because he and another man wanted her car so that they could get to Ohio. Sears and Phillip Williams, stranded when their car broke down in Atlanta, spotted Wilbur putting groceries in the trunk of her 1985 Buick in a Kroger parking lot. Sears, wearing brass knuckles, knocked her out and threw her in the backseat. Sears raped Wilbur and Williams drove. Eventually, Sears took Wilber into some bushes along Interstate 75 and stabbed her to death. Police found Wilbur’s Buick abandoned in Cincinnati. Williams is serving a life sentence for kidnapping.</p><p><b>On Death Row since:</b> Sept. 1993</p><p><b>County of conviction:</b> Cobb</p>",
   "imageurl": "https://media.cmgdigital.com/shared/img/photos/2015/09/25/b8/01/sears2.jpg"
 },
 {
   "bigtext": "Darryl Scott Stinski",
   "smalltext": "",
   "content": "<p><b>Born:</b> 1983</p><p><b>Convicted of:</b> Darryl Scott Stinski was sentenced to die for murdering Susan Pitman and her 13-year-old daughter, Kimberly, after finding them asleep in their Savannah home. He and Dorian Frank O’Kelley, also on Death Row for murder, killed the Pittmans during a crime spree in April 2002. The 41-year-old mother was beaten and stabbed to death. O’Kelley raped the teenager while Stinski searched the house and then O’Kelley slit her throat and hit her with a brick. Kimberly died of smoke inhalation after the two men set the Pittman house on fire.</p><p><b>On Death Row since:</b> July 2007</p><p><b>County of conviction:</b> Chatham</p>",
   "imageurl": "https://media.cmgdigital.com/shared/img/photos/2015/09/25/06/6f/stinski2.jpg"
 },
 {
   "bigtext": "Nicholas Cody Tate",
   "smalltext": "",
   "content": "<p><b>Born:</b> 1980</p><p><b>Convicted of:</b> Nicholas Tate was sentenced to die for murdering a Paulding County mother and her 3-year-old daughter. Tate pleaded guilty to the 2001 crimes and has declined to appeal his death sentence. Tate and his two brothers went to Chrissie Williams’ house because they thought they would find drugs and money. Tate raped the little girl and told one of his brothers, Chad, to kill her because the child had seen their faces; he strangled Katelyn with a telephone cord and then slit her throat. The other brother, Dustin, put a pillow over the mother’s head and shot her. The three brothers fled Georgia, driving to Mississippi where they kidnapped a 23-year-old woman for her car. The Tate brothers called their parents from Oklahoma to get help negotiating their surrenders. Chad and Dustin Tate are serving life sentences for murder.</p><p><b>On Death Row since:</b> Jan. 2006</p><p><b>County of conviction:</b> Paulding</p><p><b>Execution stayed:</b> Jan. 2012</p>",
   "imageurl": "https://media.cmgdigital.com/shared/img/photos/2015/09/25/35/52/tate2.jpg"
 },
 {
   "bigtext": "Keith Leroy Tharpe",
   "smalltext": "",
   "content": "<p><b>Born:</b> 1958</p><p><b>Convicted of:</b> Keith Leroy Tharpe was sentenced to die for murdering his 29-year-old sister-in-law, Jacqueline Freeman. Tharpe’s wife left him in August 1990 and moved in with her parents, securing a restraining order because of his violence and his threats. A month later, as his estranged wife and Freeman were driving to work, Tharpe forced them to stop by blocking their car with his.\n Armed with a shotgun, Tharpe dragged Freeman out of the car and shot her twice, leaving her body in a ditch beside the Jones County road. Tharpe drove off with his estranged wife and later pulled off to the side of the road where he raped her.</p><p><b>On Death Row since:</b> Jan. 1991</p><p><b>County of conviction:</b> Jones</p>",
   "imageurl": "https://media.cmgdigital.com/shared/img/photos/2015/09/25/11/82/tharpe2.jpg"
 },
 {
   "bigtext": "Leon Tollette",
   "smalltext": "",
   "content": "<p><b>Born:</b> 1968</p><p><b>Convicted of:</b> Leon Tollette was sentenced to die for murdering a Brinks employee who was picking up cash at a Columbus SouthTrust bank. Tollette flew to Georgia from Los Angeles to help a friend and another man rob an armored truck. The men decided Xavier Womack would be the lookout, and Jakeith Robinson would drive the getaway car. Tollette’s job was to wait outside the bank. As John Hamilton walked back to the Brinks truck with a bag of money collected from the bank, Tollette shot him three times – in the head, the back and a leg – and killed him. Robinson and Womack drove off when the shooting started and Tollette surrendered after emptying his gun in shootouts on the street. Robinson and Womack are now serving life sentences for armed robbery.</p><p><b>On Death Row since:</b> Dec. 1997</p><p><b>County of conviction:</b> Muscogee</p>",
   "imageurl": "https://media.cmgdigital.com/shared/img/photos/2015/09/25/a6/52/tollette2.jpg"
 },
 {
   "bigtext": "Frederick Ramone Whatley",
   "smalltext": "",
   "content": "<p><b>Born:</b> 1968</p><p><b>Convicted of:</b> Frederick Ramone Whatley was sentenced to die for murdering the owner of Roy’s Bait Shop during an armed robbery at the Griffin business. Ed Allen gave Whatley a bag containing all the store’s cash, but Whatley still shot the businessman in the chest. He also fired at the head of an employee, Tommy Bunn, who was lying face down on the floor, but the bullet bounced off the counter instead of hitting Bunn. Whatley carjacked Ray Coursey as he was getting out of the driver’s seat to go inside the store. Allen staggered to the door of the store with a .44-caliber handgun, exchanging shots with Whatley. Allen collapsed and died, and Whatley ran away on foot, without the money, because he dropped the sack and it tore open.</p><p><b>On Death Row since:</b> Jan. 1997</p><p><b>County of conviction:</b> Spalding</p>",
   "imageurl": "https://media.cmgdigital.com/shared/img/photos/2015/09/25/28/e5/whatley2.jpg"
 },
 {
   "bigtext": "Joseph Williams",
   "smalltext": "",
   "content": "<p><b>Born:</b> 1973</p><p><b>Convicted of:</b> Joseph Williams was sentenced to die for murdering former police officer Michael Deal. Deal was incarcerated at the Chatham County Jail for failing to pay child support. Williams strangled Deal and tried to make his death look like a suicide because Williams and other inmates thought the one-time cop would expose their escape plot. Before killing Deal in 2003, Williams had also been convicted of three other murders, two in Savannah in 2001, and another inmate at the Georgia State Prison at Reidsville in 2003. One of the two other inmates working with Williams to loosen a window by chiseling around it, felt guilty about Deal’s death and told his lawyer and then the authorities.</p><p><b>On Death Row since:</b>Feb. 2002</p><p><b>County of conviction:</b> Tattnall</p>",
   "imageurl": "https://media.cmgdigital.com/shared/img/photos/2015/09/25/6e/dd/williams2.jpg"
 },
 {
   "bigtext": "Demetrius Gosheun Willis",
   "smalltext": "",
   "content": "<p><b>Born:</b> 1977</p><p><b>Convicted of:</b> Demetrius Gosheun Willis was sentenced to die for murdering his former girlfriend, her boyfriend and their 3-year-old son. Willis crept into Talisa Hankins’ home on June 28, 2004, and shot 31-year-old Jerry as he slept on a couch. Willis then shot the 24-year-old Hankins as she tried to jump from a window, as well as her son, Jerry Williams Jr. Willis shot and wounded two other children in the house, his 10-year-old daughter and her 5-year-old half-sister.</p><p><b>On Death Row since:</b> June 2010</p><p><b>County of conviction:</b> Fulton</p>",
   "imageurl": "https://media.cmgdigital.com/shared/img/photos/2015/09/25/82/1d/willis2.jpg"
 },
 {
   "bigtext": "Marion Wilson Jr.",
   "smalltext": "",
   "content": "<p><b>Born:</b> 1976</p><p><b>Convicted of:</b> Marion Wilson was sentenced to die for murdering Donovan Corey Parks, an off-duty prison guard he met in the checkout line at a Milledgeville Wal-Mart. Butts, along with Robert Earl Butts Jr., who is also on Death Row for the murder, asked Parks for a ride before killing him for his car.</p><p><b>On Death Row since:</b> Nov. 1997</p><p><b>County of conviction:</b> Baldwin</p>",
   "imageurl": "https://media.cmgdigital.com/shared/img/photos/2015/09/25/7e/8b/mwilson2.jpg"
 },
 {
   "bigtext": "Willie J. Wilson Jr.",
   "smalltext": "",
   "content": "<p><b>Born:</b> 1956</p><p><b>Convicted of:</b> Willie James Wilson was sentenced to die for murdering two men during an armed robbery at a Pierce County business in 1981. Wilson, a soldier, was AWOL from Fort Stewart, and running out of money and gas. He had only $15 and needed at least $20 to fill his gas tank. After filling his tank at Alfred Boatright’s store, Wilson got in an argument with the business owner when he said he didn’t have enough money. James claimed he took out his pistol because he wanted to pawn it, and ended up firing it when he saw employee Morris Highsmith bend down behind the counter. Wilson said he thought Highsmith was reaching for a weapon. Wilson shot and killed both men, and then took $90 from the cash register.</p><p><b>On Death Row since:</b> Feb. 1982</p><p><b>County of conviction:</b> Pierce</p>",
   "imageurl": "https://media.cmgdigital.com/shared/img/photos/2015/09/25/e3/72/wwilson2.jpg"
 },
 {
   "bigtext": "Johnnie A. Worsley",
   "smalltext": "",
   "content": "<p><b>Born:</b> 1961</p><p><b>Convicted of:</b> Johnnie Worsley was sentenced to die for murdering his wife, Flora, and his 17-year-old step-daughter, Yameika Bell. The Worsleys had separated for several years because Johnnie Worsley used cocaine. They reunited in January 1995 after he said he was over his addiction, but within a few weeks Flora Worsley began to suspect he was still using. He threatened to kill her when she confronted him and threatened to leave. On the morning of March 7, 1995, instead of getting her regular morning call from from Flora Worsley, Flora’s mother instead heard from her son-in-law who apologized for what he had done without explaining. A friend who went to check on Flora Worsley found the mother and child stabbed to death.</p><p><b>On Death Row since:</b> Dec. 1998</p><p><b>County of conviction:</b> Muscogee</p>",
   "imageurl": "https://media.cmgdigital.com/shared/img/photos/2015/09/25/7a/a2/worsley2.jpg"
 },
 {
   "bigtext": "Rodney Renia Young",
   "smalltext": "",
   "content": "<p><b>Born:</b> 1961</p><p><b>Convicted of:</b> Rodney Young was sentenced to die for murdering 28-year-old Gary Jones, his former fiance’s son, by beating him with a hammer and stabbing him with a butcher knife. Doris Jones moved to Covington to live with her son after ending a seven-year-long, often-tumultuous relationship with Young. Although Young took time off from his job in New Jersey to come to Georgia to kill Gary Jones, he wasn’t suspected until he called Doris Jones to tell her that her son had come to him in a dream and asked him to take care of her.</p><p><b>On Death Row since:</b> Mar. 2012</p><p><b>County of conviction:</b> Newton</p>",
   "imageurl": "https://media.cmgdigital.com/shared/img/photos/2015/09/25/2f/91/young2.jpg"
 }
]